{
  "containers": {
  },
  "iblock_element_fields": "/options/iblockElementFields.json",
  "iblock_section_fields": "/options/iblockSectionFields.json",
  "default_iblock_field": "/options/defaultIBlockField.json",
  "field_types": "/options/fieldTypes.json"
}